[
          {
            "actor": "Salman Khan, Saif Ali Khan, Mohnish Bahl",
            "actress": "Karisma Kapoor, Tabu, Sonali Bendre",
            "allowedregions": "WW",
            "content_form": "long",
            "contenttype": "movies",
            "cue_points": "480000,960000,1440000,1920000,2400000,2880000,3360000,3840000,4320000,4800000,5280000,5760000,6240000,6720000,7200000,7680000,8160000,8640000,9120000,9600000,10080000,10560000",
            "description": "Hum Saath Saath Hain depicts the family structure and ties in India. Ramkishen and Mamta have three sons Vivek, Prem and Vinod. As Vivek is Mamta's stepson, she embitters her heart towards him for the sake of her own sons. Vivek dutifully accepts her decision.",
            "director": "Sooraj Barjatya",
            "display_title": "Hum Saath Saath Hain",
            "duration": 10592,
            "drm": "inhouse",
            "genrename": "Movies",
            "id": 1164161110,
            "isgeoblocked": false,
            "language": "Hindi",
            "mood": "Neutral",
            "moviealbumshowname": "Hum Saath Saath Hain",
            "paid": true,
            "poster_cid": 1164214546,
            "slug": "hum_saath_saath_hain",
            "subgenre": 19,
            "subgenrename": "Full Movie",
            "subsubgenrename": "Drama",
            "subtitle_en_vtt": "https://vuclip-a.akamaihd.net/ab07bb35f827e6d48f72361fb9782005/en.vtt",
            "tcid_16x9_t": 1164214539,
            "tcid_16x9": 1164214536,
            "tcid": 1164161110,
            "title": "Hum Saath Saath Hain",
            "tver": 2,
            "type": "clip",
            "year_of_release": 1999,
            "slugLanguage": "Hindi",
            "isAdsAllowed": false
          },
          {
            "actor": "Salman Khan",
            "actress": "Madhuri Dixit",
            "allowedregions": "WW",
            "content_form": "long",
            "contenttype": "movies",
            "cue_points": "480000,960000,1440000,1920000,2400000,2880000,3360000,3840000,4320000,4800000,5280000,5760000,6240000,6720000,7200000,7680000,8160000,8640000,9120000,9600000,10080000,10560000,11040000,11520000,12000000",
            "description": "Hum Aapke Hain Koun is an evergreen Bollywood movie. Prem falls head over heels in love with Nisha, his brother&#8217;s sister-in-law. Although, when Rajesh&#8217;s wife dies, the families urge him to marry Nisha for the sake of his baby. Prem and Nisha decide to sacrifice their love.",
            "director": "Sooraj Barjatya",
            "display_title": "Hum Aapke Hain Koun..!",
            "duration": 12387,
            "drm": "inhouse",
            "genrename": "Movies",
            "id": 1103245542,
            "isgeoblocked": false,
            "language": "Hindi",
            "mood": "Neutral",
            "moviealbumshowname": "Hum Aapke Hain Koun..!",
            "paid": true,
            "poster_cid": 1121742469,
            "slug": "hum_aapke_hain_koun",
            "subgenre": 19,
            "subgenrename": "Full Movie",
            "subsubgenrename": "Comedy",
            "subtitle_en_vtt": "https://vuclip-a.akamaihd.net/b000edcbc5b058ea5b269bdffdae8d81/en.vtt",
            "subtitle_ar_vtt": "https://vuclip-a.akamaihd.net/b000edcbc5b058ea5b269bdffdae8d81/ar.vtt",
            "tcid_16x9_t": 1111985240,
            "tcid_16x9": 1164186267,
            "tcid": 1103245542,
            "title": "Hum Aapke Hain Koun..!",
            "tver": 5,
            "type": "clip",
            "year_of_release": 1994,
            "slugLanguage": "Hindi",
            "isAdsAllowed": false
          },
          {
            "actor": "Salman Khan",
            "actress": "Bhagyashree",
            "allowedregions": "WW",
            "content_form": "long",
            "contenttype": "movies",
            "cue_points": "480000,960000,1440000,1920000,2400000,2880000,3360000,3840000,4320000,4800000,5280000,5760000,6240000,6720000,7200000,7680000,8160000,8640000,9120000,9600000,10080000,10560000,11040000",
            "description": "Prem and Suman fall in love with each other, only to be torn apart by family clashes. However, Suman's father is willing to give Prem one last chance. Will Prem prove himself worthy of Suman's love?",
            "director": "Sooraj Barjatya",
            "display_title": "Maine Pyar Kiya",
            "duration": 11512,
            "drm": "inhouse",
            "genrename": "Movies",
            "id": 1103811307,
            "isgeoblocked": false,
            "language": "Hindi",
            "mood": "Neutral",
            "moviealbumshowname": "Maine Pyar Kiya",
            "paid": true,
            "poster_cid": 1121742482,
            "slug": "maine_pyar_kiya",
            "subgenre": 19,
            "subgenrename": "Full Movie",
            "subsubgenrename": "Romance",
            "subtitle_en_vtt": "https://vuclip-a.akamaihd.net/f6a36e4a1f17c51f2058a0416a066642/en.vtt",
            "subtitle_ar_vtt": "https://vuclip-a.akamaihd.net/f6a36e4a1f17c51f2058a0416a066642/ar.vtt",
            "tcid_16x9_t": 1109013942,
            "tcid_16x9": 1109639613,
            "tcid": 1103811307,
            "title": "Maine Pyar Kiya",
            "tver": 2,
            "type": "clip",
            "year_of_release": 1989,
            "slugLanguage": "Hindi",
            "isAdsAllowed": false
          },
          {
            "actor": "Sanjay Dutt, Salman Khan, Dalip Tahil",
            "actress": "Karisma Kapoor, Sushma Seth",
            "allowedregions": "WW",
            "content_form": "long",
            "contenttype": "movies",
            "cue_points": "480000,960000,1440000,1920000,2400000,2880000,3360000,3840000,4320000,4800000,5280000,5760000,6240000,6720000,7200000,7680000",
            "description": "This is the story of two brothers, simple-minded Vicky and Casanova Prem and how their lives are turned upside down by a girl named Sapna.",
            "director": "David Dhawan",
            "display_title": "Chal Mere Bhai",
            "duration": 7909,
            "drm": "inhouse",
            "genrename": "Movies",
            "id": 1163826421,
            "isgeoblocked": false,
            "language": "Hindi",
            "mood": "Funny",
            "moviealbumshowname": "Chal Mere Bhai",
            "paid": true,
            "poster_cid": 1163833922,
            "slug": "chal_mere_bhai",
            "subgenre": 19,
            "subgenrename": "Full Movie",
            "subsubgenrename": "Comedy",
            "subtitle_en_vtt": "https://vuclip-a.akamaihd.net/0171f5a3eef3b5ff60083e563182a26a/en.vtt",
            "tcid_16x9_t": 1163833993,
            "tcid_16x9": 1163834065,
            "tcid": 1163826421,
            "title": "Chal Mere Bhai",
            "tver": 2,
            "type": "clip",
            "year_of_release": 2000,
            "slugLanguage": "Hindi",
            "isAdsAllowed": true
          },
          {
            "actor": "Salman Khan, Akshay Kumar",
            "actress": "Priyanka Chopra",
            "allowedregions": "WW",
            "content_form": "long",
            "contenttype": "movies",
            "cue_points": "480000,960000,1440000,1920000,2400000,2880000,3360000,3840000,4320000,4800000,5280000,5760000,6240000,6720000,7200000,7680000,8160000,8640000,9120000",
            "description": "Sameer, a hot-tempered young man, relocates to Goa, where he falls in love with Rani. But his new room-mate Sunny behaves like a spoke in the wheel, as he has some tricks up his sleeve.",
            "director": "David Dhawan",
            "display_title": "Mujhse Shaadi Karogi",
            "duration": 9485,
            "drm": "inhouse",
            "genrename": "Movies",
            "id": 1110408494,
            "isgeoblocked": false,
            "language": "Hindi",
            "mood": "Neutral",
            "moviealbumshowname": "Mujhse Shaadi Karogi",
            "paid": false,
            "poster_cid": 1123247971,
            "slug": "mujhse_shaadi_karogi",
            "subgenre": 19,
            "subgenrename": "Full Movie",
            "subsubgenrename": "Comedy",
            "subtitle_en_vtt": "https://vuclip-a.akamaihd.net/46c57c79d76407db4491b83446b5bf7a/en.vtt",
            "subtitle_id_vtt": "https://vuclip-a.akamaihd.net/46c57c79d76407db4491b83446b5bf7a/id.vtt",
            "subtitle_my_vtt": "https://vuclip-a.akamaihd.net/46c57c79d76407db4491b83446b5bf7a/my.vtt",
            "subtitle_ar_vtt": "https://vuclip-a.akamaihd.net/46c57c79d76407db4491b83446b5bf7a/ar.vtt",
            "tcid_16x9_t": 1123168461,
            "tcid_16x9": 1121850657,
            "tcid": 1110408494,
            "title": "Mujhse Shaadi Karogi",
            "tver": 5,
            "type": "clip",
            "year_of_release": 2004,
            "slugLanguage": "Hindi",
            "isAdsAllowed": true
          },
          {
            "actor": "Salman Khan",
            "actress": "Preity Zinta, Rani Mukerji",
            "allowedregions": "WW",
            "content_form": "long",
            "contenttype": "movies",
            "cue_points": "480000,960000,1440000,1920000,2400000,2880000,3360000,3840000,4320000,4800000,5280000,5760000,6240000,6720000,7200000,7680000,8160000,8640000",
            "description": "Raj saves Pooja from an accident, but she goes into a coma. Her family takes him to be her husband and he plays along. Pooja recovers and falls for Raj who, by now, has fallen for her best friend Janvi.",
            "director": "Raj Kanwar",
            "display_title": "Har Dil Jo Pyar Karega",
            "duration": 9057,
            "drm": "inhouse",
            "genrename": "Movies",
            "id": 1110393057,
            "isgeoblocked": false,
            "language": "Hindi",
            "mood": "Neutral",
            "moviealbumshowname": "Har Dil Jo Pyar Karega",
            "paid": true,
            "poster_cid": 1123247939,
            "slug": "har_dil_jo_pyar_karega",
            "subgenre": 19,
            "subgenrename": "Full Movie",
            "subsubgenrename": "Drama",
            "subtitle_en_vtt": "https://vuclip-a.akamaihd.net/3e2e9b8d843a639a99f829990b71d31c/en.vtt",
            "subtitle_ar_vtt": "https://vuclip-a.akamaihd.net/3e2e9b8d843a639a99f829990b71d31c/ar.vtt",
            "tcid_16x9_t": 1123168428,
            "tcid_16x9": 1111180656,
            "tcid": 1110393057,
            "title": "Har Dil Jo Pyar Karega",
            "tver": 6,
            "type": "clip",
            "year_of_release": 2000,
            "slugLanguage": "Hindi",
            "isAdsAllowed": true
          },
          {
            "actor": "Salman Khan, Shakti Kapoor, Kader Khan, Anupam Kher, Satish Shah",
            "actress": "Karisma Kapoor, Rambha",
            "allowedregions": "WW",
            "content_form": "long",
            "contenttype": "movies",
            "cue_points": "480000,960000,1440000,1920000,2400000,2880000,3360000,3840000,4320000,4800000,5280000,5760000,6240000,6720000,7200000,7680000",
            "description": "Judwaa is the hilarious tale of two twins Raja and Prem who are brought up away from each other in completely different surroundings. Watch what happens when these twins come face to face with each other and trouble ensues.",
            "director": "David Dhawan",
            "display_title": "Judwaa",
            "duration": 8011,
            "drm": "inhouse",
            "genrename": "Movies",
            "id": 1163909424,
            "isgeoblocked": false,
            "language": "Hindi",
            "mood": "Funny",
            "moviealbumshowname": "Judwaa",
            "paid": false,
            "poster_cid": 1163916682,
            "slug": "judwaa",
            "subgenre": 19,
            "subgenrename": "Full Movie",
            "subsubgenrename": "Drama",
            "tcid_16x9_t": 1163916674,
            "tcid_16x9": 1163916658,
            "tcid": 1163909424,
            "title": "Judwaa",
            "tver": 2,
            "type": "clip",
            "year_of_release": 1996,
            "slugLanguage": "Hindi",
            "isAdsAllowed": true
          },
          {
            "actor": "Salman Khan, Sanjay Kapoor, Nirmal Pandey, Johnny Lever",
            "actress": "Shilpa Shetty",
            "allowedregions": "WW",
            "content_form": "long",
            "contenttype": "movies",
            "cue_points": "480000,960000,1440000,1920000,2400000,2880000,3360000,3840000,4320000,4800000,5280000,5760000,6240000,6720000,7200000",
            "description": "Yash Thakur (Sanjay Kapoor) and Suraj Prakash (Salman Khan) are inseparable friends. After completing their studies, Yash takes over from his father's (Paresh Rawal) underground and mafia-like business, while Suraj becomes an CBI officer. Yash marries his sweetheart Prathna (Shilpa Shetty). After completing his training successfully, Suraj is assigned to the investigation against his friend, Yash, which shocks Suraj.",
            "director": "Sohail Khan",
            "display_title": "Auzaar",
            "duration": 7631,
            "drm": "inhouse",
            "genrename": "Movies",
            "id": 1163813854,
            "isgeoblocked": false,
            "language": "Hindi",
            "mood": "Neutral",
            "moviealbumshowname": "Auzaar",
            "paid": true,
            "poster_cid": 1163816379,
            "slug": "auzaar",
            "subgenre": 19,
            "subgenrename": "Full Movie",
            "subsubgenrename": "Action",
            "tcid_16x9_t": 1163816385,
            "tcid_16x9": 1163816393,
            "tcid": 1163813854,
            "title": "Auzaar",
            "tver": 2,
            "type": "clip",
            "year_of_release": 1997,
            "slugLanguage": "Hindi",
            "isAdsAllowed": true
          },
          {
            "actor": "Salman Khan, Johnny Lever, Anupam Kher",
            "actress": "Twinkle Khanna, Farida Jalal",
            "allowedregions": "WW",
            "content_form": "long",
            "contenttype": "movies",
            "cue_points": "480000,960000,1440000,1920000,2400000,2880000,3360000,3840000,4320000,4800000,5280000,5760000,6240000,6720000,7200000,7680000,8160000,8640000",
            "description": "Suraj is a rich, young and carefree playboy. One day he meets Komal and truly falls for her. After a few ups and downs the two finally get together. However, just when things go right and everything including marriage is planned, a little kid named Kabir appears on Suraj's doorstep and claims to be his son. This brings Suraj's past mistakes back and the story follows his relationship with both Komal and particularly Kabir, and shows how he gets close to his own child, who is the result of his past affair with Pooja, a woman who is no more. Will Komal accept Suraj with his son?",
            "director": "Deepak Sareen",
            "display_title": "Jab Pyaar Kisise Hota Hai",
            "duration": 8996,
            "drm": "inhouse",
            "genrename": "Movies",
            "id": 1163826406,
            "isgeoblocked": false,
            "language": "Hindi",
            "mood": "Funny",
            "moviealbumshowname": "Jab Pyaar Kisise Hota Hai",
            "paid": false,
            "poster_cid": 1163833984,
            "slug": "jab_pyaar_kisise_hota_hai",
            "subgenre": 19,
            "subgenrename": "Full Movie",
            "subsubgenrename": "Comedy",
            "subtitle_en_vtt": "https://vuclip-a.akamaihd.net/dc35084ea93aa320f25de774a2259bfc/en.vtt",
            "tcid_16x9_t": 1163833980,
            "tcid_16x9": 1163834060,
            "tcid": 1163826406,
            "title": "Jab Pyaar Kisise Hota Hai",
            "tver": 2,
            "type": "clip",
            "year_of_release": 1998,
            "slugLanguage": "Hindi",
            "isAdsAllowed": true
          },
          {
            "actor": "Akshay Kumar, Salman Khan",
            "actress": "Preity Zinta",
            "allowedregions": "WW",
            "content_form": "long",
            "contenttype": "movies",
            "cue_points": "480000,960000,1440000,1920000,2400000,2880000,3360000,3840000,4320000,4800000,5280000,5760000,6240000,6720000,7200000,7680000,8160000,8640000,9120000,9600000,10080000",
            "description": "The movie, Jaan-E-Mann, sets a landmark of class and style, set in a beautiful frame of romance. Suhaan and Piya's marriage has hit the rocks and they head for a divorce. Soon, Priya gets engaged to Agastya, her college friend. Agastya realises that Piya is still in love with Suhaan and not him.",
            "director": "Shirish Kunder",
            "display_title": "Jaan-E-Mann",
            "duration": 10333,
            "drm": "inhouse",
            "genrename": "Movies",
            "id": 1110408319,
            "isgeoblocked": false,
            "language": "Hindi",
            "mood": "Neutral",
            "moviealbumshowname": "Jaan-E-Mann",
            "paid": false,
            "poster_cid": 1123247961,
            "slug": "jaan_e_mann",
            "subgenre": 19,
            "subgenrename": "Full Movie",
            "subsubgenrename": "Drama",
            "subtitle_en_vtt": "https://vuclip-a.akamaihd.net/9fb39806b2c494c0e348ff133bc56b04/en.vtt",
            "subtitle_id_vtt": "https://vuclip-a.akamaihd.net/9fb39806b2c494c0e348ff133bc56b04/id.vtt",
            "subtitle_my_vtt": "https://vuclip-a.akamaihd.net/9fb39806b2c494c0e348ff133bc56b04/my.vtt",
            "subtitle_ar_vtt": "https://vuclip-a.akamaihd.net/9fb39806b2c494c0e348ff133bc56b04/ar.vtt",
            "tcid_16x9_t": 1123168450,
            "tcid_16x9": 1164567810,
            "tcid": 1110408319,
            "title": "Jaan-E-Mann",
            "tver": 6,
            "type": "clip",
            "year_of_release": 2006,
            "slugLanguage": "Hindi",
            "isAdsAllowed": true
          }
        ],