 [
          {
            "actor": "Akshay Kumar, Imran Khan",
            "actress": "Sonakshi Sinha",
            "allowedregions": "WW",
            "content_form": "long",
            "contenttype": "movies",
            "cue_points": "480000,960000,1440000,1920000,2400000,2880000,3360000,3840000,4320000,4800000,5280000,5760000,6240000,6720000,7200000,7680000,8160000",
            "description": "Once Upon A Time in Mumbai Dobaara is enamoured with dons of the underworld through rawness of realism. After killing his mentor and taking over the mafia, Shoaib befriends Aslam who also becomes his prot&#233;g&#233;. But things get complicated when they both fall for the same woman, Jasmine.",
            "director": "Milan Luthria",
            "display_title": "Once Upon a Time in Mumbai Dobaara!",
            "duration": 8596,
            "drm": "inhouse",
            "genrename": "Movies",
            "id": 930353281,
            "isgeoblocked": false,
            "language": "Hindi",
            "mood": "Neutral",
            "moviealbumshowname": "Once Upon a Time in Mumbai Dobaara!",
            "paid": false,
            "poster_cid": 1123798555,
            "slug": "once_upon_a_time_in_mumbai_dobaara",
            "subgenre": 19,
            "subgenrename": "Full Movie",
            "subsubgenrename": "Action",
            "subtitle_en_vtt": "https://vuclip-a.akamaihd.net/555c6b1620ddae1a8b407bf434291bdf/en.vtt",
            "subtitle_id_vtt": "https://vuclip-a.akamaihd.net/555c6b1620ddae1a8b407bf434291bdf/id.vtt",
            "subtitle_my_vtt": "https://vuclip-a.akamaihd.net/555c6b1620ddae1a8b407bf434291bdf/my.vtt",
            "tcid_16x9_t": 1101832059,
            "tcid_16x9": 1101831942,
            "tcid": 930353281,
            "title": "Once Upon a Time in Mumbai Dobaara!",
            "tver": 13,
            "type": "clip",
            "year_of_release": 2013,
            "slugLanguage": "Hindi",
            "isAdsAllowed": true
          },
          {
            "actor": "Salman Khan, Akshay Kumar",
            "actress": "Priyanka Chopra",
            "allowedregions": "WW",
            "content_form": "long",
            "contenttype": "movies",
            "cue_points": "480000,960000,1440000,1920000,2400000,2880000,3360000,3840000,4320000,4800000,5280000,5760000,6240000,6720000,7200000,7680000,8160000,8640000,9120000",
            "description": "Sameer, a hot-tempered young man, relocates to Goa, where he falls in love with Rani. But his new room-mate Sunny behaves like a spoke in the wheel, as he has some tricks up his sleeve.",
            "director": "David Dhawan",
            "display_title": "Mujhse Shaadi Karogi",
            "duration": 9485,
            "drm": "inhouse",
            "genrename": "Movies",
            "id": 1110408494,
            "isgeoblocked": false,
            "language": "Hindi",
            "mood": "Neutral",
            "moviealbumshowname": "Mujhse Shaadi Karogi",
            "paid": false,
            "poster_cid": 1123247971,
            "slug": "mujhse_shaadi_karogi",
            "subgenre": 19,
            "subgenrename": "Full Movie",
            "subsubgenrename": "Comedy",
            "subtitle_en_vtt": "https://vuclip-a.akamaihd.net/46c57c79d76407db4491b83446b5bf7a/en.vtt",
            "subtitle_id_vtt": "https://vuclip-a.akamaihd.net/46c57c79d76407db4491b83446b5bf7a/id.vtt",
            "subtitle_my_vtt": "https://vuclip-a.akamaihd.net/46c57c79d76407db4491b83446b5bf7a/my.vtt",
            "subtitle_ar_vtt": "https://vuclip-a.akamaihd.net/46c57c79d76407db4491b83446b5bf7a/ar.vtt",
            "tcid_16x9_t": 1123168461,
            "tcid_16x9": 1121850657,
            "tcid": 1110408494,
            "title": "Mujhse Shaadi Karogi",
            "tver": 5,
            "type": "clip",
            "year_of_release": 2004,
            "slugLanguage": "Hindi",
            "isAdsAllowed": true
          },
          {
            "actor": "Akshay Kumar",
            "actress": "Aishwarya Rai Bachchan",
            "allowedregions": "WW",
            "content_form": "long",
            "contenttype": "movies",
            "cue_points": "480000,960000,1440000,1920000,2400000,2880000,3360000,3840000,4320000,4800000,5280000,5760000,6240000,6720000,7200000,7680000,8160000,8640000,9120000,9600000,10080000,10560000",
            "description": "Khakee is an action thriller film with a storyline to drag you till the end. A team of police force escorts an alleged terrorist from Chandangarh to Mumbai. However, their journey turns into a one of a kind survival story when an ex-cop tries to stop them from reaching Mumbai.",
            "director": "Rajkumar Santoshi",
            "display_title": "Khakee",
            "duration": 10850,
            "drm": "inhouse",
            "genrename": "Movies",
            "id": 1110309093,
            "isgeoblocked": false,
            "language": "Hindi",
            "mood": "Neutral",
            "moviealbumshowname": "Khakee",
            "paid": false,
            "poster_cid": 1164956980,
            "slug": "khakee",
            "subgenre": 19,
            "subgenrename": "Full Movie",
            "subsubgenrename": "Thriller",
            "subtitle_en_vtt": "https://vuclip-a.akamaihd.net/e7e0d109752f498dbf1616c6749cbfd9/en.vtt",
            "subtitle_my_vtt": "https://vuclip-a.akamaihd.net/e7e0d109752f498dbf1616c6749cbfd9/my.vtt",
            "subtitle_ar_vtt": "https://vuclip-a.akamaihd.net/e7e0d109752f498dbf1616c6749cbfd9/ar.vtt",
            "tcid_16x9_t": 1163762532,
            "tcid_16x9": 1163762534,
            "tcid": 1110309093,
            "title": "Khakee",
            "tver": 4,
            "type": "clip",
            "year_of_release": 2004,
            "slugLanguage": "Hindi",
            "isAdsAllowed": true
          },
          {
            "actor": "Akshay Kumar, Nana Patekar, Anil Kapoor, Feroz Khan, Paresh Rawal",
            "actress": "Katrina Kaif, Mallika Sherawat",
            "allowedregions": "WW",
            "content_form": "long",
            "contenttype": "movies",
            "cue_points": "480000,960000,1440000,1920000,2400000,2880000,3360000,3840000,4320000,4800000,5280000,5760000,6240000,6720000,7200000,7680000,8160000,8640000,9120000",
            "description": "Two thugs, Uday and Majnu meet Rajeev, who belongs to a respectable family, and want to get their sister married to him. A series of funny situations occur when Rajeev's uncle opposes the marriage.",
            "director": "Anees Bazmee",
            "display_title": "Welcome",
            "duration": 9340,
            "drm": "inhouse",
            "genrename": "Movies",
            "id": 1164285909,
            "isgeoblocked": false,
            "language": "Hindi",
            "mood": "Funny",
            "moviealbumshowname": "Welcome",
            "paid": true,
            "poster_cid": 1164836684,
            "slug": "welcome",
            "subgenre": 19,
            "subgenrename": "Full Movie",
            "subsubgenrename": "Comedy",
            "tcid_16x9_t": 1164836686,
            "tcid_16x9": 1164286555,
            "tcid": 1164285909,
            "title": "Welcome",
            "tver": 2,
            "type": "clip",
            "year_of_release": 2007,
            "slugLanguage": "Hindi",
            "isAdsAllowed": false
          },
          {
            "actor": "Akshay Kumar, Sunil Shetty, Paresh Rawal",
            "actress": "Bipasha Basu, Rimi Sen",
            "allowedregions": "WW",
            "content_form": "long",
            "contenttype": "movies",
            "cue_points": "480000,960000,1440000,1920000,2400000,2880000,3360000,3840000,4320000,4800000,5280000,5760000,6240000,6720000,7200000,7680000,8160000,8640000,9120000",
            "description": "The lives of Raju, Shyam and Babu Rao change completely when they get cheated by a con artist. They must discover a way to repay a gangster which leads to hilarious consequences.",
            "director": "Jenish Sheth",
            "display_title": "Phir Hera Pheri",
            "duration": 9408,
            "drm": "inhouse",
            "genrename": "Movies",
            "id": 1164285910,
            "isgeoblocked": false,
            "language": "Hindi",
            "mood": "Funny",
            "moviealbumshowname": "Phir Hera Pheri",
            "paid": true,
            "poster_cid": 1164836681,
            "slug": "phir_hera_pheri",
            "subgenre": 19,
            "subgenrename": "Full Movie",
            "subsubgenrename": "Comedy",
            "tcid_16x9_t": 1164836680,
            "tcid_16x9": 1164836671,
            "tcid": 1164285910,
            "title": "Phir Hera Pheri",
            "tver": 2,
            "type": "clip",
            "year_of_release": 2006,
            "slugLanguage": "Hindi",
            "isAdsAllowed": false
          },
          {
            "actor": "Akshay Kumar, Sunil Shetty",
            "actress": "Raveena Tandon, Lara Dutta",
            "allowedregions": "WW",
            "content_form": "long",
            "contenttype": "movies",
            "cue_points": "480000,960000,1440000,1920000,2400000,2880000,3360000,3840000,4320000,4800000,5280000,5760000,6240000,6720000,7200000,7680000,8160000,8640000,9120000",
            "description": "A young police officer disillusioned with the corrupt and incompetent force pushes for reform, but finds that his ideals do more harm than good.",
            "director": "Madhur Bhandarkar",
            "display_title": "Aan - Men At Work",
            "duration": 9220,
            "drm": "inhouse",
            "genrename": "Movies",
            "id": 1164039382,
            "isgeoblocked": false,
            "language": "Hindi",
            "mood": "Neutral",
            "moviealbumshowname": "Aan - Men At Work",
            "paid": false,
            "poster_cid": 1164128538,
            "slug": "aan_men_at_work",
            "subgenre": 19,
            "subgenrename": "Full Movie",
            "subsubgenrename": "Action",
            "subtitle_en_vtt": "https://vuclip-a.akamaihd.net/1dfeea160a05f48ea827cb508b577937/en.vtt",
            "subtitle_my_vtt": "https://vuclip-a.akamaihd.net/1dfeea160a05f48ea827cb508b577937/my.vtt",
            "subtitle_ar_vtt": "https://vuclip-a.akamaihd.net/1dfeea160a05f48ea827cb508b577937/ar.vtt",
            "tcid_16x9_t": 1164128504,
            "tcid_16x9": 1164128491,
            "tcid": 1164039382,
            "title": "Aan - Men At Work",
            "tver": 2,
            "type": "clip",
            "year_of_release": 2004,
            "slugLanguage": "Hindi",
            "isAdsAllowed": true
          },
          {
            "actor": "Akshay Kumar, Kader Khan",
            "actress": "Karisma Kapoor, Shilpa Shetty",
            "allowedregions": "WW",
            "content_form": "long",
            "contenttype": "movies",
            "cue_points": "480000,960000,1440000,1920000,2400000,2880000,3360000,3840000,4320000,4800000,5280000,5760000,6240000,6720000,7200000,7680000,8160000,8640000,9120000,9600000",
            "description": "Sultan (Shakti Kapoor) adopts an orphan and names him Badshah (Akshay Kumar). Badshah grows up to be a criminal and his life is made difficult by Inspector Pradhan (Ashish Vidyarthi). Watch the movie to know how the story unfolds.",
            "director": "Suneel Darshan",
            "display_title": "Jaanwar",
            "duration": 9914,
            "drm": "inhouse",
            "genrename": "Movies",
            "id": 1163826408,
            "isgeoblocked": false,
            "language": "Hindi",
            "mood": "Neutral",
            "moviealbumshowname": "Jaanwar",
            "paid": false,
            "poster_cid": 1163833989,
            "slug": "jaanwar",
            "subgenre": 19,
            "subgenrename": "Full Movie",
            "subsubgenrename": "Action",
            "subtitle_en_vtt": "https://vuclip-a.akamaihd.net/2c5cffbe61447ffbad421aee126195b8/en.vtt",
            "tcid_16x9_t": 1163833988,
            "tcid_16x9": 1163834063,
            "tcid": 1163826408,
            "title": "Jaanwar",
            "tver": 2,
            "type": "clip",
            "year_of_release": 1999,
            "slugLanguage": "Hindi",
            "isAdsAllowed": true
          },
          {
            "actor": "Akshay Kumar, Anupam Kher, Remo D'Souza",
            "actress": "Urmila Matondkar, Farida Jalal",
            "allowedregions": "WW",
            "content_form": "long",
            "contenttype": "movies",
            "cue_points": "480000,960000,1440000,1920000,2400000,2880000,3360000,3840000,4320000,4800000,5280000,5760000,6240000,6720000,7200000,7680000,8160000,8640000,9120000",
            "description": "A happy go lucky, Raja gets appointed as a college professor. Here, he finds a rich girl of his dreams. But to marry her he has to win her father's approval as well as confront his look - alike con man Rocky.",
            "director": "Guddu Dhanoa",
            "display_title": "Aflatoon",
            "duration": 9207,
            "drm": "inhouse",
            "genrename": "Movies",
            "id": 1163813853,
            "isgeoblocked": false,
            "language": "Hindi",
            "mood": "Neutral",
            "moviealbumshowname": "Aflatoon",
            "paid": false,
            "poster_cid": 1163916739,
            "slug": "aflatoon",
            "subgenre": 19,
            "subgenrename": "Full Movie",
            "subsubgenrename": "Action",
            "tcid_16x9_t": 1163916704,
            "tcid_16x9": 1163916699,
            "tcid": 1163813853,
            "title": "Aflatoon",
            "tver": 2,
            "type": "clip",
            "year_of_release": 1997,
            "slugLanguage": "Hindi",
            "isAdsAllowed": true
          },
          {
            "actor": "Akshay Kumar, Raj Babbar",
            "actress": "Kareena Kapoor, Pooja Batra, Rakhee Gulzar",
            "allowedregions": "WW",
            "content_form": "long",
            "contenttype": "movies",
            "cue_points": "480000,960000,1440000,1920000,2400000,2880000,3360000,3840000,4320000,4800000,5280000,5760000,6240000,6720000,7200000,7680000,8160000,8640000,9120000",
            "description": "Arjun, a high-profile vigilante who works for a police officer, seeks revenge on the three crime bosses who destroy his family and life by beheading his father and kidnapping his sister.",
            "director": "Suneel Darshan",
            "display_title": "Talaash - The Hunt Begins",
            "duration": 9181,
            "drm": "inhouse",
            "genrename": "Movies",
            "id": 1163829782,
            "isgeoblocked": false,
            "language": "Hindi",
            "mood": "Neutral",
            "moviealbumshowname": "Talaash",
            "paid": false,
            "poster_cid": 1163916684,
            "slug": "talaash_the_hunt_begins",
            "subgenre": 19,
            "subgenrename": "Full Movie",
            "subsubgenrename": "Action",
            "subtitle_en_vtt": "https://vuclip-a.akamaihd.net/ba3a41288b354a0b7fb5cb384605d863/en.vtt",
            "tcid_16x9_t": 1163916679,
            "tcid_16x9": 1163916663,
            "tcid": 1163829782,
            "title": "Talaash - The Hunt Begins",
            "tver": 2,
            "type": "clip",
            "year_of_release": 2003,
            "slugLanguage": "Hindi",
            "isAdsAllowed": true
          },
          {
            "actor": "Akshay Kumar, Abhishek Bachchan, Kader Khan",
            "actress": "Karisma Kapoor",
            "allowedregions": "WW",
            "content_form": "long",
            "contenttype": "movies",
            "cue_points": "480000,960000,1440000,1920000,2400000,2880000,3360000,3840000,4320000,4800000,5280000,5760000,6240000,6720000,7200000,7680000,8160000,8640000,9120000,9600000",
            "description": "Shiv and Pooja are happily married to each other, but in no time Pooja comes to know that Shiv has been unfaithful to her. Hence, she decides to leave him.",
            "director": "Dharmesh Darshan",
            "display_title": "Haan Maine Bhi Pyaar Kiya",
            "duration": 10066,
            "drm": "inhouse",
            "genrename": "Movies",
            "id": 1163827471,
            "isgeoblocked": false,
            "language": "Hindi",
            "mood": "Neutral",
            "moviealbumshowname": "Haan Maine Bhi Pyaar Kiya",
            "paid": false,
            "poster_cid": 1163916636,
            "slug": "haan_maine_bhi_pyaar_kiya",
            "subgenre": 19,
            "subgenrename": "Full Movie",
            "subsubgenrename": "Drama",
            "subtitle_en_vtt": "https://vuclip-a.akamaihd.net/e06d62c617d4dbcc61448f3b89e71214/en.vtt",
            "tcid_16x9_t": 1163916694,
            "tcid_16x9": 1163916637,
            "tcid": 1163827471,
            "title": "Haan Maine Bhi Pyaar Kiya",
            "tver": 2,
            "type": "clip",
            "year_of_release": 2002,
            "slugLanguage": "Hindi",
            "isAdsAllowed": true
          },
          {
            "actor": "Amitabh Bachchan, Akshay Kumar, Arjun Rampal, Paresh Rawal",
            "actress": "Sushmita Sen",
            "allowedregions": "WW",
            "content_form": "long",
            "contenttype": "movies",
            "cue_points": "480000,960000,1440000,1920000,2400000,2880000,3360000,3840000,4320000,4800000,5280000,5760000,6240000,6720000,7200000,7680000,8160000,8640000,9120000",
            "description": "The film, Ankhen, is brimming with suspense and thrill. The movie is about a recently fired schizophrenic bank manager scheming to get even with his employers by robbing the bank with the help of three blind men and a beautiful blind school teacher.",
            "director": "Vipul Amrutlal Shah",
            "display_title": "Aankhen",
            "duration": 9542,
            "drm": "inhouse",
            "genrename": "Movies",
            "id": 1110310195,
            "isgeoblocked": false,
            "language": "Hindi",
            "mood": "Neutral",
            "moviealbumshowname": "Aankhen",
            "paid": false,
            "poster_cid": 1163850311,
            "slug": "aankhen",
            "subgenre": 19,
            "subgenrename": "Full Movie",
            "subsubgenrename": "Thriller",
            "subtitle_en_vtt": "https://vuclip-a.akamaihd.net/c4446cf0e3910b224127edc09eabeb1a/en.vtt",
            "subtitle_my_vtt": "https://vuclip-a.akamaihd.net/c4446cf0e3910b224127edc09eabeb1a/my.vtt",
            "tcid_16x9_t": 1163850271,
            "tcid_16x9": 1129929266,
            "tcid": 1110310195,
            "title": "Aankhen",
            "tver": 2,
            "type": "clip",
            "year_of_release": 2002,
            "slugLanguage": "Hindi",
            "isAdsAllowed": true
          },
          {
            "actor": "Akshay Kumar, Aman Verma, Pankaj Dheer",
            "actress": "Lara Dutta, Priyanka Chopra",
            "allowedregions": "WW",
            "content_form": "long",
            "contenttype": "movies",
            "cue_points": "480000,960000,1440000,1920000,2400000,2880000,3360000,3840000,4320000,4800000,5280000,5760000,6240000,6720000,7200000,7680000,8160000,8640000",
            "description": "After his sweetheart Kajal marries another man, Raj moves to Cape Town. He eventually agrees to marry Jiya but is shocked to learn she is now-widowed Kajal's sister-in-law.",
            "director": "Raj Kanwar",
            "display_title": "Andaaz",
            "duration": 8765,
            "drm": "inhouse",
            "genrename": "Movies",
            "id": 1163813859,
            "isgeoblocked": false,
            "language": "Hindi",
            "mood": "Neutral",
            "moviealbumshowname": "Andaaz",
            "paid": false,
            "poster_cid": 1163833936,
            "slug": "andaaz",
            "subgenre": 19,
            "subgenrename": "Full Movie",
            "subsubgenrename": "Drama",
            "tcid_16x9_t": 1163833999,
            "tcid_16x9": 1163834073,
            "tcid": 1163813859,
            "title": "Andaaz",
            "tver": 2,
            "type": "clip",
            "year_of_release": 2003,
            "slugLanguage": "Hindi",
            "isAdsAllowed": true
          },
          {
            "actor": "Akshay Kumar, Salman Khan",
            "actress": "Preity Zinta",
            "allowedregions": "WW",
            "content_form": "long",
            "contenttype": "movies",
            "cue_points": "480000,960000,1440000,1920000,2400000,2880000,3360000,3840000,4320000,4800000,5280000,5760000,6240000,6720000,7200000,7680000,8160000,8640000,9120000,9600000,10080000",
            "description": "The movie, Jaan-E-Mann, sets a landmark of class and style, set in a beautiful frame of romance. Suhaan and Piya's marriage has hit the rocks and they head for a divorce. Soon, Priya gets engaged to Agastya, her college friend. Agastya realises that Piya is still in love with Suhaan and not him.",
            "director": "Shirish Kunder",
            "display_title": "Jaan-E-Mann",
            "duration": 10333,
            "drm": "inhouse",
            "genrename": "Movies",
            "id": 1110408319,
            "isgeoblocked": false,
            "language": "Hindi",
            "mood": "Neutral",
            "moviealbumshowname": "Jaan-E-Mann",
            "paid": false,
            "poster_cid": 1123247961,
            "slug": "jaan_e_mann",
            "subgenre": 19,
            "subgenrename": "Full Movie",
            "subsubgenrename": "Drama",
            "subtitle_en_vtt": "https://vuclip-a.akamaihd.net/9fb39806b2c494c0e348ff133bc56b04/en.vtt",
            "subtitle_id_vtt": "https://vuclip-a.akamaihd.net/9fb39806b2c494c0e348ff133bc56b04/id.vtt",
            "subtitle_my_vtt": "https://vuclip-a.akamaihd.net/9fb39806b2c494c0e348ff133bc56b04/my.vtt",
            "subtitle_ar_vtt": "https://vuclip-a.akamaihd.net/9fb39806b2c494c0e348ff133bc56b04/ar.vtt",
            "tcid_16x9_t": 1123168450,
            "tcid_16x9": 1164567810,
            "tcid": 1110408319,
            "title": "Jaan-E-Mann",
            "tver": 6,
            "type": "clip",
            "year_of_release": 2006,
            "slugLanguage": "Hindi",
            "isAdsAllowed": true
          }
        ],