[
          {
            "actor": "Ranbir Kapoor, Darshan Jariwala, Upen Patel, Salman Khan",
            "actress": "Katrina Kaif, Smita Jaykar",
            "allowedregions": "WW",
            "content_form": "long",
            "contenttype": "movies",
            "cue_points": "480000,960000,1440000,1920000,2400000,2880000,3360000,3840000,4320000,4800000,5280000,5760000,6240000,6720000,7200000,7680000,8160000,8640000",
            "description": "Prem secretly loves Jenny, but discovers that she loves Rahul. When he learns that she wants to marry Rahul, he decides to help her, leading to many comical situations.",
            "director": "Rajkumar Santoshi",
            "display_title": "Ajab Prem Ki Ghazab Kahani",
            "duration": 8658,
            "drm": "inhouse",
            "genrename": "Movies",
            "id": 1163810797,
            "isgeoblocked": false,
            "language": "Hindi",
            "mood": "Funny",
            "moviealbumshowname": "Ajab Prem Ki Ghazab Kahani",
            "paid": false,
            "poster_cid": 1163811870,
            "slug": "ajab_prem_ki_ghazab_kahani",
            "subgenre": 19,
            "subgenrename": "Full Movie",
            "subsubgenrename": "Comedy",
            "subtitle_en_vtt": "https://vuclip-a.akamaihd.net/7dc5eb7d3a439257041c97b27243b7b9/en.vtt",
            "tcid_16x9": 1163811920,
            "tcid": 1163810797,
            "title": "Ajab Prem Ki Ghazab Kahani",
            "tver": 2,
            "type": "clip",
            "year_of_release": 2009,
            "slugLanguage": "Hindi",
            "isAdsAllowed": true
          },
          {
            "actor": "Salman Khan, Johnny Lever, Anupam Kher",
            "actress": "Twinkle Khanna, Farida Jalal",
            "allowedregions": "WW",
            "content_form": "long",
            "contenttype": "movies",
            "cue_points": "480000,960000,1440000,1920000,2400000,2880000,3360000,3840000,4320000,4800000,5280000,5760000,6240000,6720000,7200000,7680000,8160000,8640000",
            "description": "Suraj is a rich, young and carefree playboy. One day he meets Komal and truly falls for her. After a few ups and downs the two finally get together. However, just when things go right and everything including marriage is planned, a little kid named Kabir appears on Suraj's doorstep and claims to be his son. This brings Suraj's past mistakes back and the story follows his relationship with both Komal and particularly Kabir, and shows how he gets close to his own child, who is the result of his past affair with Pooja, a woman who is no more. Will Komal accept Suraj with his son?",
            "director": "Deepak Sareen",
            "display_title": "Jab Pyaar Kisise Hota Hai",
            "duration": 8996,
            "drm": "inhouse",
            "genrename": "Movies",
            "id": 1163826406,
            "isgeoblocked": false,
            "language": "Hindi",
            "mood": "Funny",
            "moviealbumshowname": "Jab Pyaar Kisise Hota Hai",
            "paid": false,
            "poster_cid": 1163833984,
            "slug": "jab_pyaar_kisise_hota_hai",
            "subgenre": 19,
            "subgenrename": "Full Movie",
            "subsubgenrename": "Comedy",
            "subtitle_en_vtt": "https://vuclip-a.akamaihd.net/dc35084ea93aa320f25de774a2259bfc/en.vtt",
            "tcid_16x9_t": 1163833980,
            "tcid_16x9": 1163834060,
            "tcid": 1163826406,
            "title": "Jab Pyaar Kisise Hota Hai",
            "tver": 2,
            "type": "clip",
            "year_of_release": 1998,
            "slugLanguage": "Hindi",
            "isAdsAllowed": true
          },
          {
            "actor": "Ranveer Singh",
            "actress": "Sonakshi Sinha",
            "allowedregions": "IN",
            "content_form": "long",
            "contenttype": "movies",
            "cue_points": "480000,960000,1440000,1920000,2400000,2880000,3360000,3840000,4320000,4800000,5280000,5760000,6240000,6720000,7200000,7680000,8160000",
            "description": "Pakhi, an aristocrat's daughter, falls in love with an archaeologist in 1953 Bengal. However, unbeknownst to her, he leads a double life and eventually ends up breaking her heart and devastating her.",
            "director": "Vikramaditya Motwane",
            "display_title": "Lootera",
            "duration": 8236,
            "drm": "inhouse",
            "genrename": "Movies",
            "id": 930350020,
            "isgeoblocked": false,
            "language": "Hindi",
            "mood": "Neutral",
            "moviealbumshowname": "Lootera",
            "paid": false,
            "poster_cid": 1136087528,
            "slug": "lootera",
            "subgenre": 19,
            "subgenrename": "Full Movie",
            "subsubgenrename": "Drama",
            "subtitle_en_vtt": "https://vuclip-a.akamaihd.net/6efb16f22a854ce90beee5c6339e96b0/en.vtt",
            "subtitle_id_vtt": "https://vuclip-a.akamaihd.net/6efb16f22a854ce90beee5c6339e96b0/id.vtt",
            "tcid_16x9_t": 1101831971,
            "tcid_16x9": 1101831845,
            "tcid": 930350020,
            "title": "Lootera",
            "tver": 15,
            "type": "clip",
            "year_of_release": 2013,
            "slugLanguage": "Hindi",
            "isAdsAllowed": true
          },
          {
            "actor": "Randeep Hooda",
            "actress": "Kajal Aggarwal",
            "allowedregions": "AO,BJ,BW,BF,BI,CV,CM,CF,TD,KM,CD,CG,CI,DJ,GQ,ER,ET,GA,GM,GH,GN,GW,KE,LS,LR,MG,MW,ML,MR,MU,MZ,NA,NE,NG,RW,ST,SN,SC,SL,SO,ZA,SD,SZ,TZ,TG,UG,ZM,ZW,AF,DZ,AM,AZ,BH,BD,BT,BN,KH,DJ,EG,IN,ID,IR,IQ,IL,JO,KW,LB,LY,MY,MV,MR,MA,MM,NP,OM,PK,PS,PH,QA,SA,SG,SO,LK,SD,SY,TH,TL,TN,TR,AE,VN,EH,YE",
            "content_form": "long",
            "contenttype": "movies",
            "cue_points": "480000,960000,1440000,1920000,2400000,2880000,3360000,3840000,4320000,4800000,5280000,5760000,6240000,6720000,7200000,7680000",
            "description": "A budding relationship between Sooraj, a boxer with an awful past, and Jenny, a girl with visual impairment, experiences challenges after they discover each other's pasts.",
            "director": "Deepak Tijori",
            "display_title": "Do Lafzon Ki Kahani",
            "duration": 7685,
            "drm": "inhouse",
            "genrename": "Movies",
            "id": 1164054235,
            "isgeoblocked": false,
            "language": "Hindi",
            "mood": "Drama",
            "moviealbumshowname": "Do Lafzon Ki Kahani",
            "paid": false,
            "poster_cid": 1164200004,
            "slug": "do_lafzon_ki_kahani",
            "subgenre": 19,
            "subgenrename": "Full Movie",
            "subsubgenrename": "Drama",
            "subtitle_en_vtt": "https://vuclip-a.akamaihd.net/f01b2e836a653e37fd3c04ad05bf55ae/en.vtt",
            "tcid_16x9_t": 1164227096,
            "tcid_16x9": 1164200037,
            "tcid": 1164054235,
            "title": "Do Lafzon Ki Kahani",
            "tver": 3,
            "type": "clip",
            "year_of_release": 2016,
            "slugLanguage": "Hindi",
            "isAdsAllowed": true
          },
          {
            "actor": "Shahid Kapoor, Dara Singh, Pavan Malhotra, Tarun Arora",
            "actress": "Kareena Kapoor Khan, Kiran Juneja",
            "allowedregions": "WW",
            "content_form": "long",
            "contenttype": "movies",
            "cue_points": "480000,960000,1440000,1920000,2400000,2880000,3360000,3840000,4320000,4800000,5280000,5760000,6240000,6720000,7200000,7680000,8160000",
            "description": "Aditya, a heartbroken tycoon on the verge of committing suicide, aimlessly boards a train. He meets Geet, a bubbly girl who plans to elope with her lover, and finds himself pulled into her crazy life.",
            "director": "Imtiaz Ali",
            "display_title": "Jab We Met",
            "duration": 8305,
            "drm": "inhouse",
            "genrename": "Movies",
            "id": 1163810801,
            "isgeoblocked": false,
            "language": "Hindi",
            "mood": "Funny",
            "moviealbumshowname": "Jab We Met",
            "paid": false,
            "poster_cid": 1164169289,
            "slug": "jab_we_met",
            "subgenre": 19,
            "subgenrename": "Full Movie",
            "subsubgenrename": "Comedy",
            "subtitle_en_vtt": "https://vuclip-a.akamaihd.net/4a18439194a21826bc65939898634f3d/en.vtt",
            "tcid_16x9_t": 1164169292,
            "tcid_16x9": 1164169293,
            "tcid": 1163810801,
            "title": "Jab We Met",
            "tver": 3,
            "type": "clip",
            "year_of_release": 2007,
            "slugLanguage": "Hindi",
            "isAdsAllowed": true
          },
          {
            "actor": "Shahid Kapoor, Yash Tonk, Satish Shah",
            "actress": "Amrita Rao, Shenaz Treasury",
            "allowedregions": "WW",
            "content_form": "long",
            "contenttype": "movies",
            "cue_points": "480000,960000,1440000,1920000,2400000,2880000,3360000,3840000,4320000,4800000,5280000,5760000,6240000,6720000,7200000,7680000",
            "description": "Rajiv (Shahid Kapoor) and Payal (Amrita Rao) are friends since childhood. While Payal is in love with Rajiv, it takes him a bit longer to return her feelings. He is a young, care-free college boy who decides to go conditionally steady with her, so that he can get permission to go on an outing. Payal accepts, and accompanies him. During the outing, he gets drunk, and attempts to molest her, and she decides to dump him. Thereafter, Rajiv turns on his charms on another beauty - the gorgeous Alisha Sahay. But will she be as permissible as Payal? Will Rajiv become serious about Payal again?",
            "director": "Ken Ghosh",
            "display_title": "Ishq Vishk",
            "duration": 7778,
            "drm": "inhouse",
            "genrename": "Movies",
            "id": 1163815035,
            "isgeoblocked": false,
            "language": "Hindi",
            "mood": "Romantic",
            "moviealbumshowname": "Ishq Vishk",
            "paid": false,
            "poster_cid": 1163816373,
            "slug": "ishq_vishk",
            "subgenre": 19,
            "subgenrename": "Full Movie",
            "subsubgenrename": "Romance",
            "tcid_16x9_t": 1163816392,
            "tcid_16x9": 1163816383,
            "tcid": 1163815035,
            "title": "Ishq Vishk",
            "tver": 2,
            "type": "clip",
            "year_of_release": 2003,
            "slugLanguage": "Hindi",
            "isAdsAllowed": true
          },
          {
            "actor": "Salman Khan",
            "actress": "Bhagyashree",
            "allowedregions": "WW",
            "content_form": "long",
            "contenttype": "movies",
            "cue_points": "480000,960000,1440000,1920000,2400000,2880000,3360000,3840000,4320000,4800000,5280000,5760000,6240000,6720000,7200000,7680000,8160000,8640000,9120000,9600000,10080000,10560000,11040000",
            "description": "Prem and Suman fall in love with each other, only to be torn apart by family clashes. However, Suman's father is willing to give Prem one last chance. Will Prem prove himself worthy of Suman's love?",
            "director": "Sooraj Barjatya",
            "display_title": "Maine Pyar Kiya",
            "duration": 11512,
            "drm": "inhouse",
            "genrename": "Movies",
            "id": 1103811307,
            "isgeoblocked": false,
            "language": "Hindi",
            "mood": "Neutral",
            "moviealbumshowname": "Maine Pyar Kiya",
            "paid": true,
            "poster_cid": 1121742482,
            "slug": "maine_pyar_kiya",
            "subgenre": 19,
            "subgenrename": "Full Movie",
            "subsubgenrename": "Romance",
            "subtitle_en_vtt": "https://vuclip-a.akamaihd.net/f6a36e4a1f17c51f2058a0416a066642/en.vtt",
            "subtitle_ar_vtt": "https://vuclip-a.akamaihd.net/f6a36e4a1f17c51f2058a0416a066642/ar.vtt",
            "tcid_16x9_t": 1109013942,
            "tcid_16x9": 1109639613,
            "tcid": 1103811307,
            "title": "Maine Pyar Kiya",
            "tver": 2,
            "type": "clip",
            "year_of_release": 1989,
            "slugLanguage": "Hindi",
            "isAdsAllowed": false
          },
          {
            "actor": "Fardeen Khan, Aftab Shivdasani, Saif Ali Khan",
            "actress": "Sonali Bendre, Twinkle Khanna",
            "allowedregions": "WW",
            "content_form": "long",
            "contenttype": "movies",
            "cue_points": "480000,960000,1440000,1920000,2400000,2880000,3360000,3840000,4320000,4800000,5280000,5760000,6240000,6720000,7200000,7680000",
            "description": "Five people come together who belong to different walks of life and have different dreams. They plan a huge case that later lands them up in a huge mess.",
            "director": "Eeshwar Nivas",
            "display_title": "Love Ke Liye Kuch Bhi Karega",
            "duration": 7813,
            "drm": "inhouse",
            "genrename": "Movies",
            "id": 1163827469,
            "isgeoblocked": false,
            "language": "Hindi",
            "mood": "Funny",
            "moviealbumshowname": "Love Ke Liye Kuch Bhi Karega",
            "paid": false,
            "poster_cid": 1163916727,
            "slug": "love_ke_liye_kuch_bhi_karega",
            "subgenre": 19,
            "subgenrename": "Full Movie",
            "subsubgenrename": "Comedy",
            "tcid_16x9_t": 1163916712,
            "tcid_16x9": 1163916685,
            "tcid": 1163827469,
            "title": "Love Ke Liye Kuch Bhi Karega",
            "tver": 2,
            "type": "clip",
            "year_of_release": 2001,
            "slugLanguage": "Hindi",
            "isAdsAllowed": true
          }
        ],