[
      {
        "containertype": "list",
        "createtime": 1548329421114,
        "total": 15,
        "item": [
          {
            "contenttype": "tvshows",
            "id": "playlist-25864397",
            "language": "Arabic",
            "paid": false,
            "slug": "ana_sherry_dot_com",
            "tcid_16x9_t": 1165529177,
            "tcid_16x9": 1165529178,
            "tcid_2x3_t": 1165529179,
            "tcid_2x3": 1165529181,
            "tcid": 1165519251,
            "title": "Ana Sherry Dot Com",
            "tver": 2,
            "type": "playlist"
          },
          {
            "contenttype": "tvshows",
            "id": "playlist-25838564",
            "language": "Indonesian",
            "paid": false,
            "slug": "knock_out_girl",
            "tcid_16x9_t": 1165286290,
            "tcid_16x9": 1165286291,
            "tcid_2x3_t": 1165286292,
            "tcid_2x3": 1165286293,
            "tcid": 1165284450,
            "title": "Knock Out Girl",
            "type": "playlist"
          },
          {
            "contenttype": "tvshows",
            "id": "playlist-25811562",
            "language": "English",
            "paid": false,
            "slug": "the_bridge",
            "tcid_16x9_t": 1165163569,
            "tcid_16x9": 1165142437,
            "tcid_2x3_t": 1165163560,
            "tcid_2x3": 1165142438,
            "tcid": 1165114766,
            "title": "The Bridge",
            "tver": 2,
            "type": "playlist"
          },
          {
            "contenttype": "tvshows",
            "description": "Salon is a twisted dark comedy of a female vigilante, set against the backdrop of the beauty industry. It&#8217;s a story of revenge, justice and love. Anna metes out her own brand of justice, often with amusing results. She is a master of disguise and switches between the worlds of fashion, entertainment, and nip &amp; tuck while disposing of twisted people who harm or abuse innocents along the way. She manages to keep one step ahead of the law, while she seeks to avenge the murder of her family.",
            "id": "playlist-25748665",
            "language": "English",
            "paid": false,
            "slug": "salon",
            "tcid_16x9_t": 1165044514,
            "tcid_16x9": 1165044516,
            "tcid_2x3_t": 1165044515,
            "tcid_2x3": 1165044517,
            "tcid": 1165050470,
            "title": "Salon",
            "tver": -1,
            "type": "playlist"
          },
          {
            "contenttype": "tvshows",
            "id": "playlist-25276369",
            "language": "English",
            "originals": true,
            "paid": false,
            "slug": "i_am_woman",
            "tcid_16x9_t": 1163943447,
            "tcid_16x9": 1163943447,
            "tcid_2x3_t": 1164276400,
            "tcid_2x3": 1163943448,
            "tcid": 1163914782,
            "title": "I Am Woman",
            "type": "playlist"
          },
          {
            "contenttype": "tvshows",
            "description": "The Publicist is a 2017 Romantic Drama series, conceptualized by Monty Tiwa. It is a story that focuses on the relationship between a troubled actor, Reynaldi, whose career is in jeopardy following a scandal, and a publicist, Julia, who is brought in to help restore his tarnished image. Adipati Dolken, and Prisia Nasution play the roles of actor and publicist respectively in this romantic drama in addition to Baim Wong. The publicist is VIU Indonesia original series.",
            "id": "playlist-25200090",
            "language": "Indonesian",
            "paid": false,
            "slug": "the_publicist",
            "tcid_16x9_t": 1163828782,
            "tcid_16x9": 1163828787,
            "tcid_2x3_t": 1163828785,
            "tcid_2x3": 1164285137,
            "tcid": 1163811992,
            "title": "The Publicist",
            "tver": 4,
            "type": "playlist"
          },
          {
            "contenttype": "tvshows",
            "description": "Hob Al Taybeen is a Saudi romantic comedy series. This show is one of VIU Originals. It was produced in 2018 starring Sarah Al Yafei and Sherine (Nabeela), Nawaf Al Zafiery (Khaled), and directed by Sajeer Tliha. Through the daily routine of Bandar&apos;s loving family, we explore Bandar &amp; Nabila telling their kids (Salman, Yacoub, and Nora) about how they fall in love back in the 70&#8217;s. They reminisce about the memories of the good old days when they were young and in love, and how traditions and life patterns are way different from those of the present times.",
            "id": "playlist-25557467",
            "language": "Arabic",
            "paid": false,
            "slug": "hob_al_taybeen",
            "tcid_16x9_t": 1164696506,
            "tcid_16x9": 1164696507,
            "tcid_2x3_t": 1164696508,
            "tcid_2x3": 1164696509,
            "tcid": 1164435889,
            "title": "Hob Al Taybeen",
            "tver": 3,
            "type": "playlist"
          },
          {
            "contenttype": "tvshows",
            "id": "playlist-25546567",
            "language": "Indonesian",
            "paid": false,
            "slug": "sunshine",
            "tcid_16x9_t": 1164642881,
            "tcid_16x9": 1164642929,
            "tcid_2x3_t": 1164642883,
            "tcid_2x3": 1164642884,
            "tcid": 1164369658,
            "title": "Sunshine",
            "tver": 2,
            "type": "playlist"
          },
          {
            "contenttype": "tvshows",
            "id": "playlist-25467260",
            "language": "Indonesian",
            "paid": false,
            "slug": "kenapa_harus_bule",
            "tcid_16x9_t": 1164260552,
            "tcid_16x9": 1164251902,
            "tcid_2x3_t": 1164260560,
            "tcid_2x3": 1164251905,
            "tcid": 1164249696,
            "title": "Kenapa Harus Bule?",
            "tver": 2,
            "type": "playlist"
          },
          {
            "contenttype": "tvshows",
            "description": "Wahid: Wahid is one of VIU Originals. This comic show is produced in 2018, and it is the first show that draws its comedy and satire from recent news stories, players and teams of the World Cup from non-sportive point of view. The show reviews the World Cup news with witty comments, comic songs, and direct interaction with the social media. This is the first show that draws its comedy and satire from recent news stories, players and teams of the World Cup from non-sportive point of view. The show is presented by the comedians, Ayman Wattar from Egypt and Shakir Sharif from Saudi Arabia and directed by Ahmed Abdelwahab.",
            "id": "playlist-25597133",
            "language": "Arabic",
            "paid": false,
            "slug": "wahid_wahid",
            "tcid_16x9_t": 1164832213,
            "tcid_16x9": 1164832222,
            "tcid_2x3_t": 1164832223,
            "tcid_2x3": 1164832225,
            "tcid": 1164667051,
            "title": "Wahid : Wahid",
            "tver": 2,
            "type": "playlist"
          },
          {
            "contenttype": "tvshows",
            "id": "playlist-24901580",
            "language": "Indonesian",
            "originals": true,
            "paid": false,
            "slug": "switch",
            "tcid_16x9_t": 1163771963,
            "tcid_16x9": 1163771964,
            "tcid_2x3_t": 1163753848,
            "tcid_2x3": 1163753842,
            "tcid": 1163550040,
            "title": "Switch",
            "tver": 2,
            "type": "playlist"
          },
          {
            "contenttype": "tvshows",
            "description": "Music Garage is the biggest singing talent show in the Middle East, showcasing singing talents from across the region. It is one of VIU original productions, shot and produced in UAE in 2018, targeting mainly the South Asian expats in Middle East, with bands and singers singing in different Asian languages including Hindi and Urdu. Most of the music played by the contestants were composed by the talented musician Atif Ali. The entire show is directed by Yasin Khan from Elite Films and presented by Asad Khan and Priya Jethani. One band and a singer from a line-up of six participating bands and singers, will be given the opportunity to showcase their talent in each episode. The seventh episode will recap all performances and the grand finale will feature most voted male singer, female singer and the top voted band.",
            "id": "playlist-25471024",
            "language": "Hindi",
            "originals": true,
            "paid": false,
            "slug": "music_garage",
            "tcid_16x9_t": 1164257302,
            "tcid_16x9": 1164257303,
            "tcid_2x3_t": 1164257304,
            "tcid_2x3": 1164257306,
            "tcid": 1164251035,
            "title": "Music Garage",
            "tver": 2,
            "type": "playlist"
          },
          {
            "contenttype": "tvshows",
            "id": "playlist-25743743",
            "language": "Indonesian",
            "paid": false,
            "slug": "halustik",
            "tcid_16x9_t": 1165036287,
            "tcid_16x9": 1165036288,
            "tcid_2x3_t": 1165036716,
            "tcid_2x3": 1165036290,
            "tcid": 1165019110,
            "title": "Halustik",
            "type": "playlist"
          },
          {
            "contenttype": "tvshows",
            "id": "playlist-25806500",
            "language": "Indonesian",
            "paid": false,
            "slug": "kzl",
            "tcid_16x9_t": 1165131245,
            "tcid_16x9": 1165131276,
            "tcid_2x3_t": 1165352220,
            "tcid_2x3": 1165131243,
            "tcid": 1165124851,
            "title": "KZL",
            "type": "playlist"
          },
          {
            "contenttype": "tvshows",
            "id": "playlist-25783193",
            "language": "Malay",
            "paid": false,
            "slug": "jibril",
            "tcid_16x9_t": 1165112836,
            "tcid_16x9": 1165112836,
            "tcid_2x3_t": 1165112833,
            "tcid_2x3": 1165112833,
            "tcid": 1165114765,
            "title": "Jibril",
            "tver": -1,
            "type": "playlist"
          }
        ],